{
  "connector.class": "io.confluent.connect.jdbc.JdbcSinkConnector",
  "connection.url": "jdbc:postgresql://postgres/bitvavo",
  "topics": "DAILY_USER_TRANSACTIONS",
  "key.converter": "org.apache.kafka.connect.storage.StringConverter",
  "value.converter": "io.confluent.connect.avro.AvroConverter",
  "value.converter.schema.registry.url": "http://schema-registry:8081",
  "connection.user": "bitvavo",
  "connection.password": "bitvavo",
  "auto.create": true,
  "auto.evolve": true,
  "insert.mode": "upsert",
  "pk.mode": "record_value",
  "pk.fields": "USER_GUID, DATE,TRANSACTION_TYPE",
  "transforms": "replaceName",
  "transforms.replaceName.type": "org.apache.kafka.connect.transforms.RegexRouter",
  "transforms.replaceName.regex": ".*",
  "transforms.replaceName.replacement": "daily_user_transactions",
  "errors.tolerance": "all",
  "errors.deadletterqueue.topic.name": "daily_user_transaction_volume_dlq",
  "errors.deadletterqueue.topic.replication.factor": 1,
  "errors.deadletterqueue.context.headers.enable": true
}